(module Conn_2x5_Even_Odd_Edge (layer F.Cu) (tedit 5D93BEBB)
  (descr "AT ISA 16 bits Bus Edge Connector")
  (tags "BUS ISA AT Edge connector")
  (attr virtual)
  (fp_text reference REF** (at -4.572 -6.3246) (layer F.SilkS)
    (effects (font (size 1 1) (thickness 0.15)))
  )
  (fp_text value Conn_2x5_Even_Odd_Edge (at -5.1308 5.6388) (layer F.Fab)
    (effects (font (size 1 1) (thickness 0.15)))
  )
  (fp_line (start 1.1268 0.3) (end 1.1268 -5.1) (layer F.SilkS) (width 0.12))
  (fp_line (start -11.3284 0.3) (end -11.3284 -5.1308) (layer F.SilkS) (width 0.12))
  (fp_line (start 1.0668 0.1756) (end -11.2776 0.1756) (layer F.Fab) (width 0.1))
  (fp_line (start -11.2776 0.1756) (end -11.2776 -5.08) (layer F.Fab) (width 0.1))
  (fp_line (start -11.2776 -5.08) (end 1.0668 -5.08) (layer F.Fab) (width 0.1))
  (fp_line (start 1.0668 -5.08) (end 1.0668 0.1756) (layer F.Fab) (width 0.1))
  (fp_line (start -11.5276 -5.33) (end 1.3224 -5.334) (layer F.CrtYd) (width 0.05))
  (fp_line (start -11.5276 -5.33) (end -11.5316 0.4256) (layer F.CrtYd) (width 0.05))
  (fp_line (start 1.3224 0.4256) (end 1.3224 -5.334) (layer F.CrtYd) (width 0.05))
  (fp_line (start 1.3224 0.4256) (end -11.5316 0.4256) (layer F.CrtYd) (width 0.05))
  (pad 1 connect rect (at 0 -2.3622) (size 1.78 5.08) (layers B.Cu B.Mask))
  (pad 3 connect rect (at -2.54 -2.3622) (size 1.78 5.08) (layers B.Cu B.Mask))
  (pad 5 connect rect (at -5.08 -2.3622) (size 1.78 5.08) (layers B.Cu B.Mask))
  (pad 7 connect rect (at -7.62 -2.3622) (size 1.78 5.08) (layers B.Cu B.Mask))
  (pad 9 connect rect (at -10.16 -2.3622) (size 1.78 5.08) (layers B.Cu B.Mask))
  (pad 2 connect rect (at 0 -2.3622) (size 1.78 5.08) (layers F.Cu F.Mask))
  (pad 4 connect rect (at -2.54 -2.3622) (size 1.78 5.08) (layers F.Cu F.Mask))
  (pad 6 connect rect (at -5.08 -2.3622) (size 1.78 5.08) (layers F.Cu F.Mask))
  (pad 8 connect rect (at -7.62 -2.3622) (size 1.78 5.08) (layers F.Cu F.Mask))
  (pad 10 connect rect (at -10.16 -2.3622) (size 1.78 5.08) (layers F.Cu F.Mask))
)
