(module Conn_2x20_Even_Odd_Edge (layer F.Cu) (tedit 5D93BF0F)
  (descr "AT ISA 16 bits Bus Edge Connector")
  (tags "BUS ISA AT Edge connector")
  (attr virtual)
  (fp_text reference REF** (at -11.2522 -6.858) (layer F.SilkS)
    (effects (font (size 1 1) (thickness 0.15)))
  )
  (fp_text value Conn_2x20_Even_Odd_Edge (at -24.384 -6.9596) (layer F.Fab)
    (effects (font (size 1 1) (thickness 0.15)))
  )
  (fp_line (start 1.1268 0.3) (end 1.1268 -5.1) (layer F.SilkS) (width 0.12))
  (fp_line (start -49.4476 0.3) (end -49.4476 -5.1) (layer F.SilkS) (width 0.12))
  (fp_line (start 1.0668 0.1756) (end -49.3776 0.1756) (layer F.Fab) (width 0.1))
  (fp_line (start -49.3776 0.1756) (end -49.3776 -5.08) (layer F.Fab) (width 0.1))
  (fp_line (start -49.3776 -5.08) (end 1.0668 -5.08) (layer F.Fab) (width 0.1))
  (fp_line (start 1.0668 -5.08) (end 1.0668 0.1756) (layer F.Fab) (width 0.1))
  (fp_line (start -49.6276 -5.33) (end 1.3224 -5.334) (layer F.CrtYd) (width 0.05))
  (fp_line (start -49.6276 -5.33) (end -49.6276 0.4256) (layer F.CrtYd) (width 0.05))
  (fp_line (start 1.3224 0.4256) (end 1.3224 -5.334) (layer F.CrtYd) (width 0.05))
  (fp_line (start 1.3224 0.4296) (end -49.6276 0.4256) (layer F.CrtYd) (width 0.05))
  (pad 1 connect rect (at 0 -2.3622) (size 1.78 5.08) (layers B.Cu B.Mask))
  (pad 3 connect rect (at -2.54 -2.3622) (size 1.78 5.08) (layers B.Cu B.Mask))
  (pad 5 connect rect (at -5.08 -2.3622) (size 1.78 5.08) (layers B.Cu B.Mask))
  (pad 7 connect rect (at -7.62 -2.3622) (size 1.78 5.08) (layers B.Cu B.Mask))
  (pad 9 connect rect (at -10.16 -2.3622) (size 1.78 5.08) (layers B.Cu B.Mask))
  (pad 11 connect rect (at -12.7 -2.3622) (size 1.78 5.08) (layers B.Cu B.Mask))
  (pad 13 connect rect (at -15.24 -2.3622) (size 1.78 5.08) (layers B.Cu B.Mask))
  (pad 15 connect rect (at -17.78 -2.3622) (size 1.78 5.08) (layers B.Cu B.Mask))
  (pad 17 connect rect (at -20.32 -2.3622) (size 1.78 5.08) (layers B.Cu B.Mask))
  (pad 19 connect rect (at -22.86 -2.3622) (size 1.78 5.08) (layers B.Cu B.Mask))
  (pad 21 connect rect (at -25.4 -2.3622) (size 1.78 5.08) (layers B.Cu B.Mask))
  (pad 23 connect rect (at -27.94 -2.3622) (size 1.78 5.08) (layers B.Cu B.Mask))
  (pad 25 connect rect (at -30.48 -2.3622) (size 1.78 5.08) (layers B.Cu B.Mask))
  (pad 27 connect rect (at -33.02 -2.3622) (size 1.78 5.08) (layers B.Cu B.Mask))
  (pad 29 connect rect (at -35.56 -2.3622) (size 1.78 5.08) (layers B.Cu B.Mask))
  (pad 31 connect rect (at -38.1 -2.3622) (size 1.78 5.08) (layers B.Cu B.Mask))
  (pad 33 connect rect (at -40.64 -2.3622) (size 1.78 5.08) (layers B.Cu B.Mask))
  (pad 35 connect rect (at -43.18 -2.3622) (size 1.78 5.08) (layers B.Cu B.Mask))
  (pad 37 connect rect (at -45.72 -2.3622) (size 1.78 5.08) (layers B.Cu B.Mask))
  (pad 39 connect rect (at -48.26 -2.3622) (size 1.78 5.08) (layers B.Cu B.Mask))
  (pad 2 connect rect (at 0 -2.3622) (size 1.78 5.08) (layers F.Cu F.Mask))
  (pad 4 connect rect (at -2.54 -2.3622) (size 1.78 5.08) (layers F.Cu F.Mask))
  (pad 6 connect rect (at -5.08 -2.3622) (size 1.78 5.08) (layers F.Cu F.Mask))
  (pad 8 connect rect (at -7.62 -2.3622) (size 1.78 5.08) (layers F.Cu F.Mask))
  (pad 10 connect rect (at -10.16 -2.3622) (size 1.78 5.08) (layers F.Cu F.Mask))
  (pad 12 connect rect (at -12.7 -2.3622) (size 1.78 5.08) (layers F.Cu F.Mask))
  (pad 14 connect rect (at -15.24 -2.3622) (size 1.78 5.08) (layers F.Cu F.Mask))
  (pad 16 connect rect (at -17.78 -2.3622) (size 1.78 5.08) (layers F.Cu F.Mask))
  (pad 18 connect rect (at -20.32 -2.3622) (size 1.78 5.08) (layers F.Cu F.Mask))
  (pad 20 connect rect (at -22.86 -2.3622) (size 1.78 5.08) (layers F.Cu F.Mask))
  (pad 22 connect rect (at -25.4 -2.3622) (size 1.78 5.08) (layers F.Cu F.Mask))
  (pad 24 connect rect (at -27.94 -2.3622) (size 1.78 5.08) (layers F.Cu F.Mask))
  (pad 26 connect rect (at -30.48 -2.3622) (size 1.78 5.08) (layers F.Cu F.Mask))
  (pad 28 connect rect (at -33.02 -2.3622) (size 1.78 5.08) (layers F.Cu F.Mask))
  (pad 30 connect rect (at -35.56 -2.3622) (size 1.78 5.08) (layers F.Cu F.Mask))
  (pad 32 connect rect (at -38.1 -2.3622) (size 1.78 5.08) (layers F.Cu F.Mask))
  (pad 34 connect rect (at -40.64 -2.3622) (size 1.78 5.08) (layers F.Cu F.Mask))
  (pad 36 connect rect (at -43.18 -2.3622) (size 1.78 5.08) (layers F.Cu F.Mask))
  (pad 38 connect rect (at -45.72 -2.3622) (size 1.78 5.08) (layers F.Cu F.Mask))
  (pad 40 connect rect (at -48.26 -2.3622) (size 1.78 5.08) (layers F.Cu F.Mask))
)
